<svg xmlns="http://www.w3.org/2000/svg" width="1703" height="498" viewBox="0 0 1703 498">
  <g id="Grupo_24" data-name="Grupo 24" transform="translate(-79 -42)">
    <rect id="Retângulo_27" data-name="Retângulo 27" width="35" height="25" transform="translate(79 86)" fill="rgba(255,255,255,0.06)"/>
    <rect id="Retângulo_28" data-name="Retângulo 28" width="86" height="73" transform="translate(224 276)" fill="rgba(255,255,255,0.06)"/>
    <rect id="Retângulo_29" data-name="Retângulo 29" width="83" height="67" transform="translate(1486 460)" fill="rgba(255,255,255,0.06)"/>
    <rect id="Retângulo_30" data-name="Retângulo 30" width="86" height="79" transform="translate(1361 54)" fill="rgba(255,255,255,0.06)"/>
    <rect id="Retângulo_31" data-name="Retângulo 31" width="74" height="69" transform="translate(742 42)" fill="rgba(255,255,255,0.06)"/>
    <rect id="Retângulo_32" data-name="Retângulo 32" width="100" height="80" transform="translate(400 460)" fill="rgba(255,255,255,0.06)"/>
    <rect id="Retângulo_33" data-name="Retângulo 33" width="32" height="28" transform="translate(1750 133)" fill="rgba(255,255,255,0.06)"/>
    <rect id="Retângulo_34" data-name="Retângulo 34" width="50" height="47" transform="translate(400 86)" fill="rgba(255,255,255,0.06)"/>
  </g>
</svg>
