<svg xmlns="http://www.w3.org/2000/svg" width="12.678" height="21.821" viewBox="0 0 12.678 21.821">
  <g id="Grupo_37" data-name="Grupo 37" transform="translate(0.921 0.707)">
    <line id="Linha_21" data-name="Linha 21" x2="10.343" y2="10.343" fill="none" stroke="#fff" stroke-width="2"/>
    <line id="Linha_22" data-name="Linha 22" y1="9.358" x2="9.85" transform="translate(0.493 10.343)" fill="none" stroke="#fff" stroke-linecap="round" stroke-width="2"/>
  </g>
</svg>
