<svg xmlns="http://www.w3.org/2000/svg" width="16" height="16" viewBox="0 0 16 16">
  <g id="search" transform="translate(-11 -11)">
    <path id="Caminho_424" data-name="Caminho 424" d="M26.8,25.864l-3.847-3.847a6.737,6.737,0,1,0-.944.944L25.86,26.8a.666.666,0,0,0,.944-.94Zm-9.061-2.72a5.4,5.4,0,1,1,5.4-5.4A5.408,5.408,0,0,1,17.743,23.144Z" fill="#fff"/>
  </g>
</svg>
